{
    "Categories": "Qt;KDE;X-KDE-information;",
    "KPlugin": {
        "BugReportUrl": "https://bugs.kde.org/enter_bug.cgi?product=kinfocenter&component=general",
        "Description": "Firmware Security Information",
        "Description[ar]": "معلومات عن أمن البرامج الثابتة",
        "Description[az]": "Mikroproqram təhlükəsizliyi məlumatı",
        "Description[bg]": "Данни за сигурността на фърмуера",
        "Description[ca@valencia]": "Informació de seguretat del microprogramari",
        "Description[ca]": "Informació de seguretat del microprogramari",
        "Description[cs]": "Informace o zabezpečení Firmware",
        "Description[de]": "Informationen zur Firmware-Sicherheit",
        "Description[en_GB]": "Firmware Security Information",
        "Description[es]": "Información sobre seguridad del firmware",
        "Description[et]": "Püsivara turbeteave",
        "Description[eu]": "Firmware-segurtasunaren gaineko informazioa",
        "Description[fi]": "Laiteohjelmiston turvallisuustiedot",
        "Description[fr]": "Informations sur la sécurité du micro-logiciel",
        "Description[ia]": "Information de securitate de firmware",
        "Description[id]": "Informasi Keamanan Firmware",
        "Description[it]": "Informazioni di sicurezza del firmware",
        "Description[ja]": "ファームウェアのセキュリティ情報",
        "Description[ka]": "ინფორმაცია მიკროკოდის უსაფრთხოების შესახებ",
        "Description[ko]": "펌웨어 보안 정보",
        "Description[lt]": "Informacija apie programinės aparatinės įrangos saugumą",
        "Description[nl]": "Firmware beveiligingsinformatie",
        "Description[nn]": "Tryggleiks­informasjon om fastvare",
        "Description[pl]": "Szczegóły Zabezpieczenia oprogramowania układowego",
        "Description[pt]": "Informação de Segurança do 'Firmware'",
        "Description[pt_BR]": "Informações de segurança do firmware",
        "Description[ro]": "Informații de securitate pentru microcod",
        "Description[ru]": "Сведения о безопасности встроенного ПО",
        "Description[sk]": "Informácie o zabezpečení firmvéru",
        "Description[sl]": "Informacije o varnosti vgrajenega programja",
        "Description[sv]": "Säkerhetsinformation om fast programvara",
        "Description[ta]": "சாதனநிரல் பாதுகாப்பு குறித்த விவரங்கள்",
        "Description[tr]": "Gömülü Yazılım Güvenliği Bilgisi",
        "Description[uk]": "Дані щодо захисту мікропрограм",
        "Description[vi]": "Thông tin an ninh phần sụn",
        "Description[x-test]": "xxFirmware Security Informationxx",
        "Description[zh_CN]": "固件安全信息",
        "Icon": "preferences-security",
        "Name": "Firmware Security",
        "Name[ar]": "أمن البرامج الثابتة",
        "Name[az]": "Mikroproqram təhlükəsizliyi",
        "Name[bg]": "Сигурност на фърмуер",
        "Name[ca@valencia]": "Seguretat del microprogramari",
        "Name[ca]": "Seguretat del microprogramari",
        "Name[cs]": "Zabezpečení Firmware",
        "Name[de]": "Firmware-Sicherheit",
        "Name[en_GB]": "Firmware Security",
        "Name[es]": "Seguridad del firmware",
        "Name[et]": "Püsivara turvalisus",
        "Name[eu]": "Firmwarearen segurtasuna",
        "Name[fi]": "Laiteohjelmiston turvallisuus",
        "Name[fr]": "Sécurité du micro-logiciel",
        "Name[ia]": "Securitate de firmware",
        "Name[id]": "Keamanan Firmware",
        "Name[it]": "Sicurezza del firmware",
        "Name[ja]": "ファームウェアセキュリティ",
        "Name[ka]": "მიკროკოდის უსაფრთხოება",
        "Name[ko]": "펌웨어 보안",
        "Name[lt]": "Programinės aparatinės įrangos saugumas",
        "Name[nl]": "Firmware beveiliging",
        "Name[nn]": "Fastvare-tryggleik",
        "Name[pl]": "Zabezpieczenie oprogramowania układowego",
        "Name[pt]": "Segurança do 'Firmware'",
        "Name[pt_BR]": "Segurança do firmware",
        "Name[ro]": "Securitate microcod",
        "Name[ru]": "Безопасность встроенного ПО",
        "Name[sk]": "Zabezpečenie firmvéru",
        "Name[sl]": "Varnost vgrajenega programja",
        "Name[sv]": "Säkerhet för fast programvara",
        "Name[ta]": "சாதனநிரல் பாதுகாப்பு",
        "Name[tr]": "Gömülü Yazılım Güvenliği",
        "Name[uk]": "Захист мікропрограм",
        "Name[vi]": "An ninh phần sụn",
        "Name[x-test]": "xxFirmware Securityxx",
        "Name[zh_CN]": "固件安全"
    },
    "TryExec": "fwupdmgr",
    "X-KDE-KInfoCenter-Category": "device_information",
    "X-KDE-Keywords": "firmware,security,hsi,secureboot,fwupd,bootguard,lockdown"
}
